{
  "osx" : {
    "title": "TimeTracking",
    "background": "assets/osx/installer.png",
    "icon": "assets/osx/mount.icns",
    "icon-size": 80,
    "contents": [
      { "x": 438, "y": 344, "type": "link", "path": "/Applications" },
      { "x": 192, "y": 344, "type": "file" }
    ]
  },
  "win" : {
    "title" : "TimeTracking",
    "version" : "0.0.0.1",
    "publisher": "Justinas Batavičius",
    "icon" : "assets/win/icon.ico",
    "verbosity": 1,
    "nsiTemplate" : "path/to/custom/installer.nsi.tpl", // optional
    "fileAssociation": { // optional
      "extension": ".loop",
      "fileType": "Loopline Systems File"
    }
  }
}